…
```r
# find the median steps in each day

med_steps <- df %>%
  group_by(date) %>%
  summarize(Median=median(steps), Mean=mean(steps)) 

print(med_steps)
```

```
## # A tibble: 61 × 3
##    date       Median   Mean
##    <date>      <dbl>  <dbl>
##  1 2012-10-01     NA NA    
##  2 2012-10-02      0  0.438
##  3 2012-10-03      0 39.4  
##  4 2012-10-04      0 42.1  
##  5 2012-10-05      0 46.2  
##  6 2012-10-06      0 53.5  
##  7 2012-10-07      0 38.2  
##  8 2012-10-08     NA NA    
##  9 2012-10-09      0 44.5  
## 10 2012-10-10      0 34.4  
## # … with 51 more rows
```
…
```r
# find the median steps in each day

med_steps2 <- df2 %>%
  group_by(date) %>%
  summarize(Median=median(steps), Mean=mean(steps)) 

print(med_steps2)
```

```
## # A tibble: 61 × 3
##    date       Median   Mean
##    <date>      <dbl>  <dbl>
##  1 2012-10-01   34.1 37.4  
##  2 2012-10-02    0    0.438
##  3 2012-10-03    0   39.4  
##  4 2012-10-04    0   42.1  
##  5 2012-10-05    0   46.2  
##  6 2012-10-06    0   53.5  
##  7 2012-10-07    0   38.2  
##  8 2012-10-08   34.1 37.4  
##  9 2012-10-09    0   44.5  
## 10 2012-10-10    0   34.4  
## # … with 51 more rows
```
…
